{
  "baseUrl": "https://beta.mbeta.info",
  "ignoreTestFiles": "*.js",
  "pluginsFile": "cypress/plugins/index.js",
  "supportFile": "cypress/support/index.js",
  "integrationFolder": "cypress/integration",
  "screenshotOnRunFailure": true,
  "trashAssetsBeforeRuns": true,
  "video": false,
  "screenshotsFolder": "cypress/screenshots",
  "reporter": "mochawesome",
  "testFiles": "**/*.feature",
  "reporterOptions": {
    "reportDir": "cypress/results",
    "quiet": true,
    "reportTitle": "mbeta",
    "overwrite": false,
    "html": false,
    "json": true
  }
}
